{
  "data":
  [
    {
      "fecha": "2016-11-10T08:28:36 +03:00",
      "objetivo": 9.74,
      "actual": 19.15,
      "enfriador": false
    },
    {
      "fecha": "2016-12-10T11:01:45 +03:00",
      "objetivo": 12.35,
      "actual": 11.4,
      "enfriador": true
    },
    {
      "fecha": "2016-08-07T02:39:25 +03:00",
      "objetivo": 25.74,
      "actual": 11.49,
      "enfriador": true
    },
    {
      "fecha": "2017-01-11T08:13:49 +03:00",
      "objetivo": 7.82,
      "actual": 8.04,
      "enfriador": false
    },
    {
      "fecha": "2016-12-12T09:33:45 +03:00",
      "objetivo": 26.25,
      "actual": 1.91,
      "enfriador": false
    }
  ]
}